<svg xmlns="http://www.w3.org/2000/svg" width="28" height="28" viewBox="0 0 28 28">
  <g id="contact_us" data-name="contact us" transform="translate(4724.5 -2583.5)">
    <rect id="Rectangle_4271" data-name="Rectangle 4271" width="28" height="28" transform="translate(-4724.5 2583.5)" fill="none"/>
    <g id="technical-support" transform="translate(-4721.755 2586.245)">
      <path id="Path_13736" data-name="Path 13736" d="M176.777,60.092h1.316a2.337,2.337,0,0,0,2.01,2.31v-.753a3.649,3.649,0,1,0-7.3,0v.776h1.639A2.336,2.336,0,0,0,176.777,60.092Z" transform="translate(-165.224 -55.456)" fill="#fff"/>
      <path id="Path_13737" data-name="Path 13737" d="M76.287,11.21h1.241a5.559,5.559,0,0,1-.036-.633V6.193a4.965,4.965,0,0,1,9.93,0v4.384a5.559,5.559,0,0,1-.036.633h1.241a1.793,1.793,0,0,0,1.791-1.791v-2A1.793,1.793,0,0,0,88.7,5.633a6.276,6.276,0,0,0-12.485,0A1.793,1.793,0,0,0,74.5,7.423v2A1.793,1.793,0,0,0,76.287,11.21Z" transform="translate(-71.228)" fill="#fff"/>
      <path id="Path_13738" data-name="Path 13738" d="M176.454,161.082a3.546,3.546,0,0,0,2.794-1.4h-2.039v-1.316h2.717a4.185,4.185,0,0,0,.177-1.207v-2.306a3.651,3.651,0,0,1-2.668-1.547,3.648,3.648,0,0,1-2.991,1.561h-1.639v2.292A3.8,3.8,0,0,0,176.454,161.082Z" transform="translate(-165.225 -146.578)" fill="#fff"/>
      <path id="Path_13739" data-name="Path 13739" d="M179.379,322.618v-1.756a4.784,4.784,0,0,1-7.374.021v1.733l-.006,0a6.655,6.655,0,0,0,3.679,1.59A6.726,6.726,0,0,0,179.379,322.618Z" transform="translate(-164.455 -306.788)" fill="#fff"/>
      <path id="Path_13740" data-name="Path 13740" d="M20.8,373.363l-4.4-1.442c-.745.663-2.927,2.419-5.176,2.419s-4.418-1.759-5.154-2.422l-4.41,1.446A2.4,2.4,0,0,0,0,375.652v2.409H4.53V375.78H5.846v2.281H16.611V375.78h1.316v2.281h4.53v-2.409A2.4,2.4,0,0,0,20.8,373.363Z" transform="translate(0 -355.604)" fill="#fff"/>
    </g>
  </g>
</svg>
