<svg xmlns="http://www.w3.org/2000/svg" width="28" height="28" viewBox="0 0 28 28">
  <g id="user" transform="translate(2278 -4056)">
    <rect id="Rectangle_4266" data-name="Rectangle 4266" width="28" height="28" transform="translate(-2278 4056)" fill="none"/>
    <g id="team" transform="translate(-2276 4020.16)">
      <g id="Group_59705" data-name="Group 59705" transform="translate(19.458 50.289)">
        <g id="Group_59704" data-name="Group 59704" transform="translate(0 0)">
          <path id="Path_15216" data-name="Path 15216" d="M400.427,273.32h-1.933a5.028,5.028,0,0,1,.3,1.729v7.307a2.154,2.154,0,0,1-.124.722h3.2a2.168,2.168,0,0,0,2.165-2.165v-3.983A3.613,3.613,0,0,0,400.427,273.32Z" transform="translate(-398.494 -273.32)" fill="#fff"/>
        </g>
      </g>
      <g id="Group_59707" data-name="Group 59707" transform="translate(0 50.289)">
        <g id="Group_59706" data-name="Group 59706" transform="translate(0 0)">
          <path id="Path_15217" data-name="Path 15217" d="M5.238,275.05a5.029,5.029,0,0,1,.3-1.729H3.609A3.613,3.613,0,0,0,0,276.93v3.983a2.168,2.168,0,0,0,2.165,2.165h3.2a2.155,2.155,0,0,1-.124-.722Z" transform="translate(0 -273.321)" fill="#fff"/>
        </g>
      </g>
      <g id="Group_59709" data-name="Group 59709" transform="translate(6.681 48.409)">
        <g id="Group_59708" data-name="Group 59708">
          <path id="Path_15218" data-name="Path 15218" d="M144.858,234.815h-4.42a3.613,3.613,0,0,0-3.609,3.609v7.307a.722.722,0,0,0,.722.722h10.194a.722.722,0,0,0,.722-.722v-7.307A3.613,3.613,0,0,0,144.858,234.815Z" transform="translate(-136.829 -234.815)" fill="#fff"/>
        </g>
      </g>
      <g id="Group_59711" data-name="Group 59711" transform="translate(8.16 38.84)">
        <g id="Group_59710" data-name="Group 59710" transform="translate(0 0)">
          <path id="Path_15219" data-name="Path 15219" d="M171.454,38.84a4.339,4.339,0,1,0,4.34,4.34A4.345,4.345,0,0,0,171.454,38.84Z" transform="translate(-167.114 -38.84)" fill="#fff"/>
        </g>
      </g>
      <g id="Group_59713" data-name="Group 59713" transform="translate(1.633 42.885)">
        <g id="Group_59712" data-name="Group 59712" transform="translate(0 0)">
          <path id="Path_15220" data-name="Path 15220" d="M36.689,121.689a3.244,3.244,0,1,0,3.246,3.246A3.249,3.249,0,0,0,36.689,121.689Z" transform="translate(-33.443 -121.689)" fill="#fff"/>
        </g>
      </g>
      <g id="Group_59715" data-name="Group 59715" transform="translate(16.875 42.885)">
        <g id="Group_59714" data-name="Group 59714" transform="translate(0 0)">
          <path id="Path_15221" data-name="Path 15221" d="M348.853,121.689a3.246,3.246,0,1,0,3.246,3.246A3.249,3.249,0,0,0,348.853,121.689Z" transform="translate(-345.607 -121.689)" fill="#fff"/>
        </g>
      </g>
    </g>
  </g>
</svg>
